[
    {
        "message": {
            "template": {
                "elements": {
                    "title": "Thanks for connecting.Bye",
                    "says": "",
                    "visemes": ""
                },
                "type": "Card"
            }
        }
    },
    {
        "ssml":  "<speak><s>Thanks for connecting.Bye</s></speak>"
    }
]